# feam banks, run 903624
# col 0
pwb12
pwb13
pwb14
pwb02
pwb11
pwb17
pwb18
pwb19
# col 1
pwb20
pwb21
pwb22
pwb23
pwb24
pwb25
pwb26
pwb27
# col 2
pwb46
pwb29
pwb08
pwb77
pwb10
pwb33
pwb34
pwb35
# col 3
pwb36
pwb37
pwb01
pwb39
pwb76
pwb41
pwb42
pwb40
# col 4
pwb44
pwb49
pwb07
pwb78
pwb03
pwb04
pwb05
pwb15
# col 5
pwb52
pwb53
pwb54
pwb55
pwb56
pwb57
pwb58
pwb28
# col 6
pwb60
pwb00
pwb06
pwb63
pwb64
pwb65
pwb66
pwb67
# col 7
pwb68
pwb69
pwb70
pwb71
pwb72
pwb73
pwb74
pwb75
